{
  "content": [
    {
      "id": "72",
      "docid": "840704451",
      "fio": "John Isaac",
      "birthday": "1989-08-19",
      "salary": 58295.0,
      "gender": "M",
      "loans": [
        {
          "loan": "771916",
          "amount": 337600.0,
          "document": "840704451",
          "startdate": "2019-11-09",
          "period": 48
        },
        {
          "loan": "504544",
          "amount": 358900.0,
          "document": "840704451",
          "startdate": "2018-06-10",
          "period": 36
        },
        {
          "loan": "699247",
          "amount": 464400.0,
          "document": "840704451",
          "startdate": "2018-10-30",
          "period": 36
        },
        {
          "loan": "783101",
          "amount": 139300.0,
          "document": "840704451",
          "startdate": "2017-02-19",
          "period": 36
        }
      ]
    },
    {
      "id": "68",
      "docid": "023665566",
      "fio": "Denny Tanner",
      "birthday": "1989-03-25",
      "salary": 80713.0,
      "gender": "M",
      "loans": [
        {
          "loan": "631553",
          "amount": 403000.0,
          "document": "023665566",
          "startdate": "2019-06-01",
          "period": 12
        },
        {
          "loan": "598452",
          "amount": 198500.0,
          "document": "023665566",
          "startdate": "2015-09-28",
          "period": 36
        },
        {
          "loan": "151915",
          "amount": 13600.0,
          "document": "023665566",
          "startdate": "2019-06-15",
          "period": 12
        },
        {
          "loan": "368342",
          "amount": 350500.0,
          "document": "023665566",
          "startdate": "2017-02-06",
          "period": 48
        },
        {
          "loan": "633056",
          "amount": 482900.0,
          "document": "023665566",
          "startdate": "2016-07-01",
          "period": 12
        }
      ]
    },
    {
      "id": "98",
      "docid": "688713655",
      "fio": "Chelsea Rogan",
      "birthday": "1988-06-25",
      "salary": 36541.0,
      "gender": "F",
      "loans": [
        {
          "loan": "132118",
          "amount": 36900.0,
          "document": "688713655",
          "startdate": "2017-08-12",
          "period": 12
        },
        {
          "loan": "977982",
          "amount": 159300.0,
          "document": "688713655",
          "startdate": "2018-06-06",
          "period": 36
        },
        {
          "loan": "636410",
          "amount": 432300.0,
          "document": "688713655",
          "startdate": "2018-05-18",
          "period": 24
        },
        {
          "loan": "906095",
          "amount": 298000.0,
          "document": "688713655",
          "startdate": "2015-01-01",
          "period": 36
        }
      ]
    },
    {
      "id": "28",
      "docid": "074658188",
      "fio": "Benjamin Kidd",
      "birthday": "1986-11-28",
      "salary": 22518.0,
      "gender": "M",
      "loans": [
        {
          "loan": "222398",
          "amount": 265400.0,
          "document": "074658188",
          "startdate": "2017-09-22",
          "period": 12
        },
        {
          "loan": "107242",
          "amount": 39300.0,
          "document": "074658188",
          "startdate": "2017-11-24",
          "period": 48
        },
        {
          "loan": "669744",
          "amount": 118300.0,
          "document": "074658188",
          "startdate": "2015-02-02",
          "period": 48
        }
      ]
    },
    {
      "id": "81",
      "docid": "266633171",
      "fio": "Kurt Thomas",
      "birthday": "1986-06-03",
      "salary": 67638.0,
      "gender": "M",
      "loans": [
        {
          "loan": "610450",
          "amount": 469200.0,
          "document": "266633171",
          "startdate": "2018-07-10",
          "period": 12
        },
        {
          "loan": "886812",
          "amount": 77500.0,
          "document": "266633171",
          "startdate": "2016-11-19",
          "period": 36
        }
      ]
    },
    {
      "id": "30",
      "docid": "202516486",
      "fio": "Candice Quinn",
      "birthday": "1984-11-22",
      "salary": 33232.0,
      "gender": "F",
      "loans": [
        {
          "loan": "964529",
          "amount": 56500.0,
          "document": "202516486",
          "startdate": "2018-03-09",
          "period": 48
        },
        {
          "loan": "569577",
          "amount": 306900.0,
          "document": "202516486",
          "startdate": "2017-06-27",
          "period": 24
        },
        {
          "loan": "549298",
          "amount": 498700.0,
          "document": "202516486",
          "startdate": "2017-06-18",
          "period": 36
        },
        {
          "loan": "593605",
          "amount": 435800.0,
          "document": "202516486",
          "startdate": "2016-07-02",
          "period": 48
        },
        {
          "loan": "769662",
          "amount": 60600.0,
          "document": "202516486",
          "startdate": "2015-06-02",
          "period": 36
        },
        {
          "loan": "460513",
          "amount": 489600.0,
          "document": "202516486",
          "startdate": "2019-11-17",
          "period": 12
        }
      ]
    },
    {
      "id": "34",
      "docid": "053088475",
      "fio": "Sharon Ianson",
      "birthday": "1982-08-01",
      "salary": 35634.0,
      "gender": "F",
      "loans": [
        {
          "loan": "115886",
          "amount": 144900.0,
          "document": "053088475",
          "startdate": "2018-04-27",
          "period": 24
        },
        {
          "loan": "293348",
          "amount": 39400.0,
          "document": "053088475",
          "startdate": "2015-09-11",
          "period": 36
        }
      ]
    },
    {
      "id": "39",
      "docid": "051407172",
      "fio": "Hayden Coates",
      "birthday": "1982-05-06",
      "salary": 47243.0,
      "gender": "M",
      "loans": [
        {
          "loan": "433512",
          "amount": 49800.0,
          "document": "051407172",
          "startdate": "2017-08-16",
          "period": 12
        },
        {
          "loan": "129954",
          "amount": 89700.0,
          "document": "051407172",
          "startdate": "2016-06-17",
          "period": 36
        },
        {
          "loan": "549374",
          "amount": 100000.0,
          "document": "051407172",
          "startdate": "2016-12-06",
          "period": 24
        },
        {
          "loan": "466428",
          "amount": 370800.0,
          "document": "051407172",
          "startdate": "2017-01-20",
          "period": 24
        },
        {
          "loan": "803737",
          "amount": 270400.0,
          "document": "051407172",
          "startdate": "2018-05-16",
          "period": 24
        },
        {
          "loan": "512344",
          "amount": 475600.0,
          "document": "051407172",
          "startdate": "2015-03-02",
          "period": 48
        }
      ]
    },
    {
      "id": "3",
      "docid": "337061136",
      "fio": "Dasha Ring",
      "birthday": "1980-01-01",
      "salary": 78012.0,
      "gender": "F",
      "loans": [
        {
          "loan": "801846",
          "amount": 116800.0,
          "document": "337061136",
          "startdate": "2019-07-17",
          "period": 36
        },
        {
          "loan": "460755",
          "amount": 303500.0,
          "document": "337061136",
          "startdate": "2017-05-21",
          "period": 36
        }
      ]
    },
    {
      "id": "88",
      "docid": "408828583",
      "fio": "Hank Shields",
      "birthday": "1979-11-28",
      "salary": 43596.0,
      "gender": "M",
      "loans": [
        {
          "loan": "442783",
          "amount": 425200.0,
          "document": "408828583",
          "startdate": "2019-06-28",
          "period": 36
        },
        {
          "loan": "146418",
          "amount": 238400.0,
          "document": "408828583",
          "startdate": "2015-12-27",
          "period": 12
        },
        {
          "loan": "553055",
          "amount": 129200.0,
          "document": "408828583",
          "startdate": "2017-09-06",
          "period": 12
        }
      ]
    },
    {
      "id": "33",
      "docid": "106786874",
      "fio": "Allison Jenkins",
      "birthday": "1979-05-28",
      "salary": 76962.0,
      "gender": "F",
      "loans": [
        {
          "loan": "356296",
          "amount": 129400.0,
          "document": "106786874",
          "startdate": "2017-10-30",
          "period": 24
        },
        {
          "loan": "742187",
          "amount": 52100.0,
          "document": "106786874",
          "startdate": "2018-01-29",
          "period": 24
        },
        {
          "loan": "552739",
          "amount": 406400.0,
          "document": "106786874",
          "startdate": "2019-06-17",
          "period": 12
        },
        {
          "loan": "959925",
          "amount": 394600.0,
          "document": "106786874",
          "startdate": "2016-03-23",
          "period": 36
        },
        {
          "loan": "904519",
          "amount": 481600.0,
          "document": "106786874",
          "startdate": "2016-02-05",
          "period": 24
        }
      ]
    },
    {
      "id": "18",
      "docid": "881853462",
      "fio": "Russel Walker",
      "birthday": "1979-02-06",
      "salary": 88502.0,
      "gender": "M",
      "loans": [
        {
          "loan": "770598",
          "amount": 96800.0,
          "document": "881853462",
          "startdate": "2017-08-18",
          "period": 12
        }
      ]
    },
    {
      "id": "2",
      "docid": "875766015",
      "fio": "Johnathan Nielson",
      "birthday": "1976-11-16",
      "salary": 74656.0,
      "gender": "M",
      "loans": [
        {
          "loan": "244266",
          "amount": 19400.0,
          "document": "875766015",
          "startdate": "2016-03-08",
          "period": 48
        },
        {
          "loan": "452134",
          "amount": 338100.0,
          "document": "875766015",
          "startdate": "2017-02-17",
          "period": 12
        },
        {
          "loan": "103121",
          "amount": 117000.0,
          "document": "875766015",
          "startdate": "2018-06-07",
          "period": 12
        },
        {
          "loan": "974525",
          "amount": 249800.0,
          "document": "875766015",
          "startdate": "2017-02-15",
          "period": 24
        },
        {
          "loan": "296159",
          "amount": 225600.0,
          "document": "875766015",
          "startdate": "2018-11-27",
          "period": 36
        },
        {
          "loan": "483232",
          "amount": 50900.0,
          "document": "875766015",
          "startdate": "2015-09-06",
          "period": 36
        }
      ]
    },
    {
      "id": "41",
      "docid": "856012478",
      "fio": "Hayden Cox",
      "birthday": "1976-05-25",
      "salary": 67599.0,
      "gender": "M",
      "loans": [
        {
          "loan": "417197",
          "amount": 197600.0,
          "document": "856012478",
          "startdate": "2020-02-18",
          "period": 48
        },
        {
          "loan": "228089",
          "amount": 412600.0,
          "document": "856012478",
          "startdate": "2020-03-01",
          "period": 12
        },
        {
          "loan": "651828",
          "amount": 350100.0,
          "document": "856012478",
          "startdate": "2019-04-02",
          "period": 36
        },
        {
          "loan": "948500",
          "amount": 202600.0,
          "document": "856012478",
          "startdate": "2015-07-30",
          "period": 48
        }
      ]
    },
    {
      "id": "63",
      "docid": "788416825",
      "fio": "Michael Baxter",
      "birthday": "1975-04-16",
      "salary": 17406.0,
      "gender": "M",
      "loans": [
        {
          "loan": "251134",
          "amount": 55100.0,
          "document": "788416825",
          "startdate": "2019-02-28",
          "period": 36
        },
        {
          "loan": "281556",
          "amount": 486700.0,
          "document": "788416825",
          "startdate": "2015-02-18",
          "period": 48
        },
        {
          "loan": "715720",
          "amount": 193300.0,
          "document": "788416825",
          "startdate": "2016-04-13",
          "period": 48
        },
        {
          "loan": "782741",
          "amount": 61400.0,
          "document": "788416825",
          "startdate": "2018-06-02",
          "period": 12
        }
      ]
    },
    {
      "id": "12",
      "docid": "115148301",
      "fio": "Ivette Payne",
      "birthday": "1972-05-03",
      "salary": 3800.0,
      "gender": "F",
      "loans": [
        {
          "loan": "378416",
          "amount": 227500.0,
          "document": "115148301",
          "startdate": "2020-03-19",
          "period": 36
        }
      ]
    },
    {
      "id": "75",
      "docid": "233513767",
      "fio": "Chester Richards",
      "birthday": "1971-11-06",
      "salary": 49059.0,
      "gender": "M",
      "loans": [
        {
          "loan": "948174",
          "amount": 165600.0,
          "document": "233513767",
          "startdate": "2019-01-05",
          "period": 36
        },
        {
          "loan": "882198",
          "amount": 164900.0,
          "document": "233513767",
          "startdate": "2015-11-26",
          "period": 48
        },
        {
          "loan": "299127",
          "amount": 253800.0,
          "document": "233513767",
          "startdate": "2019-07-30",
          "period": 48
        },
        {
          "loan": "449355",
          "amount": 360700.0,
          "document": "233513767",
          "startdate": "2017-11-13",
          "period": 36
        },
        {
          "loan": "597717",
          "amount": 386700.0,
          "document": "233513767",
          "startdate": "2019-07-07",
          "period": 48
        },
        {
          "loan": "146525",
          "amount": 168900.0,
          "document": "233513767",
          "startdate": "2018-01-16",
          "period": 36
        }
      ]
    },
    {
      "id": "29",
      "docid": "702821510",
      "fio": "Phoebe Whitehouse",
      "birthday": "1971-07-12",
      "salary": 72244.0,
      "gender": "F",
      "loans": [
        {
          "loan": "580922",
          "amount": 404000.0,
          "document": "702821510",
          "startdate": "2017-05-28",
          "period": 24
        },
        {
          "loan": "554208",
          "amount": 159700.0,
          "document": "702821510",
          "startdate": "2018-11-23",
          "period": 48
        }
      ]
    },
    {
      "id": "24",
      "docid": "233807285",
      "fio": "Kurt Nash",
      "birthday": "1970-12-27",
      "salary": 60845.0,
      "gender": "M",
      "loans": [
        {
          "loan": "993556",
          "amount": 254700.0,
          "document": "233807285",
          "startdate": "2017-02-04",
          "period": 24
        },
        {
          "loan": "707037",
          "amount": 138100.0,
          "document": "233807285",
          "startdate": "2020-05-12",
          "period": 12
        },
        {
          "loan": "483990",
          "amount": 100300.0,
          "document": "233807285",
          "startdate": "2020-03-14",
          "period": 12
        },
        {
          "loan": "722861",
          "amount": 17100.0,
          "document": "233807285",
          "startdate": "2018-08-11",
          "period": 12
        },
        {
          "loan": "782703",
          "amount": 302100.0,
          "document": "233807285",
          "startdate": "2019-04-28",
          "period": 48
        }
      ]
    },
    {
      "id": "27",
      "docid": "218844133",
      "fio": "Eduardo Wilson",
      "birthday": "1970-09-23",
      "salary": 5213.0,
      "gender": "M",
      "loans": [
        {
          "loan": "894803",
          "amount": 5900.0,
          "document": "218844133",
          "startdate": "2015-10-19",
          "period": 36
        },
        {
          "loan": "142333",
          "amount": 82700.0,
          "document": "218844133",
          "startdate": "2018-06-14",
          "period": 24
        },
        {
          "loan": "777396",
          "amount": 211500.0,
          "document": "218844133",
          "startdate": "2017-09-12",
          "period": 12
        }
      ]
    }
  ],
  "pageable": {
    "sort": {
      "unsorted": false,
      "sorted": true,
      "empty": false
    },
    "offset": 0,
    "pageSize": 20,
    "pageNumber": 0,
    "paged": true,
    "unpaged": false
  },
  "totalPages": 5,
  "totalElements": 100,
  "last": false,
  "size": 20,
  "number": 0,
  "sort": {
    "unsorted": false,
    "sorted": true,
    "empty": false
  },
  "first": true,
  "numberOfElements": 20,
  "empty": false
}